…
``` r
# Getting the 24 rows that had missing values

NA_locate <- which(!complete.cases(md))

# Checking newly computed Income. 

md2_check <- md2 %>% dplyr::select(Country, Education, Income)
md2_check[NA_locate,]
```

    ## # A tibble: 24 x 3
    ##    Country Education  Income
    ##    <fct>   <fct>       <dbl>
    ##  1 GER     PhD        57845.
    ##  2 US      Graduation 52576.
    ##  3 AUS     PhD        52770.
    ##  4 AUS     Graduation 53555.
    ##  5 CA      PhD        59187 
    ##  6 GER     2n Cycle   43183 
    ##  7 US      Master     54154.
    ##  8 GER     Graduation 55840.
    ##  9 AUS     2n Cycle   45892.
    ## 10 AUS     Master     51995.
    ## # ... with 14 more rows
…
